waveforms/tb_example.vcd
$date
	Fri Aug  1 22:48:17 2025
$end
$version
	Icarus Verilog
$end
$timescale
	1ps
$end
$scope module tb_example $end
$var parameter 32 ! CLK_PERIOD $end
$var reg 1 " clk $end
$var reg 1 # rst_n $end
$upscope $end
$scope module tb_rescale_unit $end
$var wire 8 $ scale_factor_o [7:0] $end
$var wire 1 % scale_factor_increment_o $end
$var wire 1 & rescaling_active_o $end
$var wire 8 ' rescale_count_o [7:0] $end
$var wire 8 ( overflow_magnitude_o [7:0] $end
$var wire 1 ) overflow_detected_o $end
$var wire 1 * data_valid_o $end
$var wire 16 + data_real_o [15:0] $end
$var wire 16 , data_imag_o [15:0] $end
$var reg 1 - clk_i $end
$var reg 16 . data_imag_i [15:0] $end
$var reg 16 / data_real_i [15:0] $end
$var reg 1 0 data_valid_i $end
$var reg 1 1 overflow_detect_i $end
$var reg 1 2 rescale_en_i $end
$var reg 1 3 rescale_mode_i $end
$var reg 8 4 rescale_threshold_i [7:0] $end
$var reg 1 5 reset_n_i $end
$var reg 1 6 rounding_mode_i $end
$var reg 1 7 saturation_en_i $end
$var reg 1 8 scale_track_en_i $end
$scope module dut $end
$var wire 1 - clk_i $end
$var wire 16 9 data_imag_i [15:0] $end
$var wire 16 : data_real_i [15:0] $end
$var wire 1 0 data_valid_i $end
$var wire 1 1 overflow_detect_i $end
$var wire 1 ) overflow_detected_o $end
$var wire 8 ; overflow_magnitude_o [7:0] $end
$var wire 8 < rescale_count_o [7:0] $end
$var wire 1 2 rescale_en_i $end
$var wire 1 3 rescale_mode_i $end
$var wire 8 = rescale_threshold_i [7:0] $end
$var wire 1 & rescaling_active_o $end
$var wire 1 5 reset_n_i $end
$var wire 1 6 rounding_mode_i $end
$var wire 1 7 saturation_en_i $end
$var wire 1 % scale_factor_increment_o $end
$var wire 8 > scale_factor_o [7:0] $end
$var wire 1 8 scale_track_en_i $end
$var parameter 32 ? DATA_WIDTH $end
$var parameter 32 @ SCALE_FACTOR_WIDTH $end
$var reg 16 A data_imag_o [15:0] $end
$var reg 16 B data_imag_reg [15:0] $end
$var reg 16 C data_real_o [15:0] $end
$var reg 16 D data_real_reg [15:0] $end
$var reg 1 * data_valid_o $end
$var reg 1 E imag_overflow $end
$var reg 1 F overflow_detected_reg $end
$var reg 8 G overflow_magnitude_imag [7:0] $end
$var reg 8 H overflow_magnitude_real [7:0] $end
$var reg 8 I overflow_magnitude_reg [7:0] $end
$var reg 1 J real_overflow $end
$var reg 8 K rescale_count_reg [7:0] $end
$var reg 16 L rescaled_imag [15:0] $end
$var reg 16 M rescaled_real [15:0] $end
$var reg 1 N rescaling_active_reg $end
$var reg 1 O scale_factor_increment_reg $end
$var reg 8 P scale_factor_reg [7:0] $end
$scope begin $unm_blk_130 $end
$var reg 2 Q imag_msb [1:0] $end
$var reg 8 R imag_overflow_bits [7:0] $end
$var reg 2 S real_msb [1:0] $end
$var reg 8 T real_overflow_bits [7:0] $end
$upscope $end
$upscope $end
$scope task test_no_overflow $end
$upscope $end
$scope task test_overflow_round $end
$upscope $end
$scope task test_overflow_truncate $end
$upscope $end
$scope task test_saturation $end
$upscope $end
$scope task test_scale_factor_tracking $end
$scope begin $ivl_for_loop3 $end
$var integer 32 U i [31:0] $end
$upscope $end
$upscope $end
$upscope $end
$scope module tb_twiddle_rom $end
$var wire 1 V data_valid_o $end
$var wire 32 W data_o [31:0] $end
$var reg 16 X addr_i [15:0] $end
$var reg 1 Y addr_valid_i $end
$var reg 1 Z clk_i $end
$var reg 1 [ reset_n_i $end
$scope module dut $end
$var wire 16 \ addr_i [15:0] $end
$var wire 1 Y addr_valid_i $end
$var wire 1 Z clk_i $end
$var wire 32 ] data_o [31:0] $end
$var wire 1 [ reset_n_i $end
$var wire 11 ^ rom_addr [10:0] $end
$var parameter 32 _ ADDR_WIDTH $end
$var parameter 32 ` MAX_FFT_LENGTH_LOG2 $end
$var parameter 32 a ROM_SIZE $end
$var parameter 32 b TWIDDLE_WIDTH $end
$var reg 1 V data_valid_o $end
$var reg 32 c rom_data [31:0] $end
$scope begin $ivl_for_loop0 $end
$var integer 32 d k [31:0] $end
$scope begin $unm_blk_167 $end
$var integer 32 e cos_int [31:0] $end
$var integer 32 f sin_int [31:0] $end
$upscope $end
$upscope $end
$scope begin $ivl_for_loop1 $end
$var integer 32 g k [31:0] $end
$upscope $end
$upscope $end
$scope begin $ivl_for_loop4 $end
$var integer 32 h i [31:0] $end
$upscope $end
$upscope $end
$enddefinitions $end
$comment Show the parameter values. $end
$dumpall
b10000 b
b100000000000 a
b1100 `
b1011 _
b1000 @
b10000 ?
b1010 !
$end
#0
$dumpvars
b0 h
b100000000000 g
b110010 f
b11111111111111111000000000000001 e
b100000000000 d
bx c
b0 ^
bx ]
b0 \
0[
0Z
0Y
b0 X
bx W
xV
b0 U
bx T
bx S
bx R
bx Q
bx P
0O
xN
bx M
bx L
bx K
0J
bx I
b0 H
b0 G
xF
0E
bx D
bx C
bx B
bx A
bx >
b10000000 =
bx <
bx ;
b0 :
b0 9
18
07
06
05
b10000000 4
03
12
11
00
b0 /
b0 .
0-
bx ,
bx +
x*
x)
bx (
bx '
x&
0%
bx $
0#
0"
$end
#500
0V
0*
0&
0N
0)
0F
b0 (
b0 ;
b0 I
b0 '
b0 <
b0 K
b0 $
b0 >
b0 P
1Z
1-
#1000
0Z
0-
#1500
1Z
1-
#2000
0Z
0-
#2500
1Z
1-
#3000
0Z
0-
#3500
1Z
1-
#4000
0Z
0-
#4500
1Z
1-
#5000
0Z
0-
1"
#5500
1Z
1-
#6000
0Z
0-
#6500
1Z
1-
#7000
0Z
0-
#7500
1Z
1-
#8000
0Z
0-
#8500
1Z
1-
#9000
0Z
0-
#9500
1Z
1-
#10000
0Z
0-
0"
#10500
1Z
1-
#11000
0Z
0-
#11500
1Z
1-
#12000
0Z
0-
#12500
1Z
1-
#13000
0Z
0-
#13500
1Z
1-
#14000
0Z
0-
#14500
1Z
1-
#15000
0Z
0-
1"
#15500
1Z
1-
#16000
0Z
0-
#16500
1Z
1-
#17000
0Z
0-
#17500
1Z
1-
#18000
0Z
0-
#18500
1Z
1-
#19000
0Z
0-
#19500
1Z
1-
#20000
0Z
0-
0"
#20500
1Z
1-
#21000
0Z
0-
#21500
1Z
1-
#22000
0Z
0-
#22500
1Z
1-
#23000
0Z
0-
#23500
1Z
1-
#24000
0Z
0-
#24500
1Z
1-
#25000
0Z
0-
1"
#25500
1Z
1-
#26000
0Z
0-
#26500
1Z
1-
#27000
0Z
0-
#27500
1Z
1-
#28000
0Z
0-
#28500
1Z
1-
#29000
0Z
0-
#29500
1Z
1-
#30000
0Z
0-
0"
#30500
1Z
1-
#31000
0Z
0-
#31500
1Z
1-
#32000
0Z
0-
#32500
1Z
1-
#33000
0Z
0-
#33500
1Z
1-
#34000
0Z
0-
#34500
1Z
1-
#35000
0Z
0-
1"
#35500
1Z
1-
#36000
0Z
0-
#36500
1Z
1-
#37000
0Z
0-
#37500
1Z
1-
#38000
0Z
0-
#38500
1Z
1-
#39000
0Z
0-
#39500
1Z
1-
#40000
0Z
0-
0"
#40500
1Z
1-
#41000
0Z
0-
#41500
1Z
1-
#42000
0Z
0-
#42500
1Z
1-
#43000
0Z
0-
#43500
1Z
1-
#44000
0Z
0-
#44500
1Z
1-
#45000
0Z
0-
1"
#45500
1Z
1-
#46000
0Z
0-
#46500
1Z
1-
#47000
0Z
0-
#47500
1Z
1-
#48000
0Z
0-
#48500
1Z
1-
#49000
0Z
0-
#49500
1Z
1-
#50000
0Z
0-
0"
#50500
1Z
1-
#51000
0Z
0-
#51500
1Z
1-
#52000
0Z
0-
#52500
1Z
1-
#53000
0Z
0-
#53500
1Z
1-
#54000
0Z
0-
#54500
1Z
1-
#55000
0Z
0-
1"
#55500
1Z
1-
#56000
0Z
0-
#56500
1Z
1-
#57000
0Z
0-
#57500
1Z
1-
#58000
0Z
0-
#58500
1Z
1-
#59000
0Z
0-
#59500
1Z
1-
#60000
0Z
0-
0"
#60500
1Z
1-
#61000
0Z
0-
#61500
1Z
1-
#62000
0Z
0-
#62500
1Z
1-
#63000
0Z
0-
#63500
1Z
1-
#64000
0Z
0-
#64500
1Z
1-
#65000
0Z
0-
1"
#65500
1Z
1-
#66000
0Z
0-
#66500
1Z
1-
#67000
0Z
0-
#67500
1Z
1-
#68000
0Z
0-
#68500
1Z
1-
#69000
0Z
0-
#69500
1Z
1-
#70000
0Z
0-
0"
#70500
1Z
1-
#71000
0Z
0-
#71500
1Z
1-
#72000
0Z
0-
#72500
1Z
1-
#73000
0Z
0-
#73500
1Z
1-
#74000
0Z
0-
#74500
1Z
1-
#75000
0Z
0-
1"
#75500
1Z
1-
#76000
0Z
0-
#76500
1Z
1-
#77000
0Z
0-
#77500
1Z
1-
#78000
0Z
0-
#78500
1Z
1-
#79000
0Z
0-
#79500
1Z
1-
#80000
0Z
0-
0"
#80500
1Z
1-
#81000
0Z
0-
#81500
1Z
1-
#82000
0Z
0-
#82500
1Z
1-
#83000
0Z
0-
#83500
1Z
1-
#84000
0Z
0-
#84500
1Z
1-
#85000
0Z
0-
1"
#85500
1Z
1-
#86000
0Z
0-
#86500
1Z
1-
#87000
0Z
0-
#87500
1Z
1-
#88000
0Z
0-
#88500
1Z
1-
#89000
0Z
0-
#89500
1Z
1-
#90000
0Z
0-
0"
#90500
1Z
1-
#91000
0Z
0-
#91500
1Z
1-
#92000
0Z
0-
#92500
1Z
1-
#93000
0Z
0-
#93500
1Z
1-
#94000
0Z
0-
#94500
1Z
1-
#95000
0Z
0-
1"
#95500
1Z
1-
#96000
0Z
0-
#96500
1Z
1-
#97000
0Z
0-
#97500
1Z
1-
#98000
0Z
0-
#98500
1Z
1-
#99000
0Z
0-
#99500
1Z
1-
#100000
0Z
0-
0"
1Y
1[
10
b11000000000000 .
b11000000000000 9
b10000000000000 /
b10000000000000 :
15
1#
#100500
b11000000000000 ,
b11000000000000 A
b10000000000000 +
b10000000000000 C
b110000 R
b0 Q
b100000 T
b0 S
b11000000000000 L
b10000000000000 M
1V
b1111111111111110000000000000000 W
b1111111111111110000000000000000 ]
b1111111111111110000000000000000 c
1*
b11000000000000 B
b10000000000000 D
1Z
1-
#101000
0Z
0-
0Y
00
#101500
0V
0*
1Z
1-
#102000
b1 ^
0Z
0-
1Y
b1 X
b1 \
#102500
1V
b1111111111111110000000000110010 W
b1111111111111110000000000110010 ]
b1111111111111110000000000110010 c
1Z
1-
#103000
0Z
0-
0Y
10
b110000000000000 .
b110000000000000 9
b111000000000000 /
b111000000000000 :
#103500
b11100000000000 +
b11100000000000 C
1%
1O
b1100000 G
1E
b1110000 H
1J
b1 Q
b1 S
b1100000 R
b1110000 T
b11000000000000 L
b11100000000000 M
0V
1*
b110000000000000 B
b111000000000000 D
1Z
1-
#104000
b10 ^
0Z
0-
1Y
b10 X
b10 \
b10 h
00
#104500
1V
b1111111111111110000000001100101 W
b1111111111111110000000001100101 ]
b1111111111111110000000001100101 c
0*
1&
1N
1)
1F
b1100000 (
b1100000 ;
b1100000 I
b1 '
b1 <
b1 K
b1 $
b1 >
b1 P
1Z
1-
#105000
0Z
0-
0Y
1"
#105500
0V
b1110000 (
b1110000 ;
b1110000 I
b10 '
b10 <
b10 K
b10 $
b10 >
b10 P
1Z
1-
#106000
b11 ^
b1100000 R
b1 Q
b1110000 T
b1 S
b1100000 G
b1110000 H
1E
1J
1%
1O
b11000000000000 L
b11100000000000 M
0Z
0-
1Y
b11 X
b11 \
b11 h
10
16
#106500
1V
b1111111111111110000000010010111 W
b1111111111111110000000010010111 ]
b1111111111111110000000010010111 c
1*
b11 '
b11 <
b11 K
b11 $
b11 >
b11 P
1Z
1-
#107000
0Z
0-
0Y
00
#107500
0V
0*
b100 '
b100 <
b100 K
b100 $
b100 >
b100 P
1Z
1-
#108000
b100 ^
0Z
0-
1Y
b100 X
b100 \
b100 h
#108500
1V
b1111111111111100000000011001001 W
b1111111111111100000000011001001 ]
b1111111111111100000000011001001 c
b101 '
b101 <
b101 K
b101 $
b101 >
b101 P
1Z
1-
#109000
b1000000000000000 ,
b1000000000000000 A
b1000000000000000 +
b1000000000000000 C
0Z
0-
0Y
10
b111111111111111 .
b111111111111111 9
b1000000000000000 /
b1000000000000000 :
17
#109500
b1111111 R
b1 Q
b10000000 T
b10 S
b1111111 G
b10000000 H
1E
1J
1%
1O
b100000000000000 L
b100000000000000 M
0V
1*
b111111111111111 B
b1000000000000000 D
b110 '
b110 <
b110 K
b110 $
b110 >
b110 P
1Z
1-
#110000
b101 ^
0Z
0-
1Y
b101 X
b101 \
b101 h
00
0"
#110500
1V
b1111111111111100000000011111011 W
b1111111111111100000000011111011 ]
b1111111111111100000000011111011 c
0*
b1111111 (
b1111111 ;
b1111111 I
b111 '
b111 <
b111 K
b111 $
b111 >
b111 P
1Z
1-
#111000
0Z
0-
0Y
#111500
0V
b10000000 (
b10000000 ;
b10000000 I
b1000 '
b1000 <
b1000 K
b1000 $
b1000 >
b1000 P
1Z
1-
#112000
b110 ^
0Z
0-
1Y
b110 X
b110 \
b110 h
10
b110000000000000 .
b110000000000000 9
b111000000000000 /
b111000000000000 :
#112500
b1100000 R
b1 Q
b1110000 T
b1 S
b1100000 G
b1110000 H
1E
1J
1%
1O
b11000000000000 L
b11100000000000 M
1V
b1111111111111100000000100101110 W
b1111111111111100000000100101110 ]
b1111111111111100000000100101110 c
1*
b110000000000000 B
b111000000000000 D
b1001 '
b1001 <
b1001 K
b1001 $
b1001 >
b1001 P
1Z
1-
#113000
0Z
0-
0Y
00
#113500
0V
0*
b1010 '
b1010 <
b1010 K
b1010 $
b1010 >
b1010 P
1Z
1-
#114000
b111 ^
0Z
0-
1Y
b111 X
b111 \
b111 h
#114500
1V
b1111111111111010000000101100000 W
b1111111111111010000000101100000 ]
b1111111111111010000000101100000 c
b1011 '
b1011 <
b1011 K
b1011 $
b1011 >
b1011 P
1Z
1-
#115000
0Z
0-
0Y
10
b111000000000000 .
b111000000000000 9
b1000000000000000 /
b1000000000000000 :
b1 U
1"
#115500
b1110000 R
b1 Q
b10000000 T
b10 S
b1110000 G
b10000000 H
1E
1J
1%
1O
b11100000000000 L
b100000000000000 M
0V
1*
b111000000000000 B
b1000000000000000 D
b1100 '
b1100 <
b1100 K
b1100 $
b1100 >
b1100 P
1Z
1-
#116000
b1000 ^
0Z
0-
1Y
b1000 X
b1000 \
b1000 h
00
#116500
1V
b1111111111111010000000110010010 W
b1111111111111010000000110010010 ]
b1111111111111010000000110010010 c
0*
b1101 '
b1101 <
b1101 K
b1101 $
b1101 >
b1101 P
1Z
1-
#117000
0Z
0-
0Y
#117500
0V
b1110 '
b1110 <
b1110 K
b1110 $
b1110 >
b1110 P
1Z
1-
#118000
b1001 ^
0Z
0-
1Y
b1001 X
b1001 \
b1001 h
10
b1000000000000000 .
b1000000000000000 9
b1001000000000000 /
b1001000000000000 :
b10 U
#118500
b10000000 R
b10 Q
b10010000 T
b10 S
b10000000 G
b10010000 H
1E
1J
1%
1O
b100000000000000 L
b100100000000000 M
1V
b1111111111111000000000111000100 W
b1111111111111000000000111000100 ]
b1111111111111000000000111000100 c
1*
b1000000000000000 B
b1001000000000000 D
b1111 '
b1111 <
b1111 K
b1111 $
b1111 >
b1111 P
1Z
1-
#119000
0Z
0-
0Y
00
#119500
0V
0*
b10010000 (
b10010000 ;
b10010000 I
b10000 '
b10000 <
b10000 K
b10000 $
b10000 >
b10000 P
1Z
1-
#120000
0Z
0-
b1010 h
0"
#120500
b10001 '
b10001 <
b10001 K
b10001 $
b10001 >
b10001 P
1Z
1-
#121000
0Z
0-
10
b1001000000000000 .
b1001000000000000 9
b1010000000000000 /
b1010000000000000 :
b11 U
#121500
b10010000 R
b10 Q
b10100000 T
b10 S
b10010000 G
b10100000 H
1E
1J
1%
1O
b100100000000000 L
b101000000000000 M
1*
b1001000000000000 B
b1010000000000000 D
b10010 '
b10010 <
b10010 K
b10010 $
b10010 >
b10010 P
1Z
1-
#122000
0Z
0-
00
#122500
0*
b10100000 (
b10100000 ;
b10100000 I
b10011 '
b10011 <
b10011 K
b10011 $
b10011 >
b10011 P
1Z
1-
#123000
0Z
0-
#123500
b10100 '
b10100 <
b10100 K
b10100 $
b10100 >
b10100 P
1Z
1-
#124000
0Z
0-
10
b1010000000000000 .
b1010000000000000 9
b1011000000000000 /
b1011000000000000 :
b100 U
#124500
b10100000 R
b10 Q
b10110000 T
b10 S
b10100000 G
b10110000 H
1E
1J
1%
1O
b101000000000000 L
b101100000000000 M
1*
b1010000000000000 B
b1011000000000000 D
b10101 '
b10101 <
b10101 K
b10101 $
b10101 >
b10101 P
1Z
1-
#125000
0Z
0-
00
1"
#125500
0*
b10110000 (
b10110000 ;
b10110000 I
b10110 '
b10110 <
b10110 K
b10110 $
b10110 >
b10110 P
1Z
1-
#126000
0Z
0-
#126500
b10111 '
b10111 <
b10111 K
b10111 $
b10111 >
b10111 P
1Z
1-
#127000
0Z
0-
b101 U
#127500
b11000 '
b11000 <
b11000 K
b11000 $
b11000 >
b11000 P
1Z
1-
#128000
0Z
0-
#128500
b11001 '
b11001 <
b11001 K
b11001 $
b11001 >
b11001 P
1Z
1-
#129000
0Z
0-
#129500
b11010 '
b11010 <
b11010 K
b11010 $
b11010 >
b11010 P
1Z
1-
#130000
0Z
0-
0"
#130500
b11011 '
b11011 <
b11011 K
b11011 $
b11011 >
b11011 P
1Z
1-
#131000
0Z
0-
#131500
b11100 '
b11100 <
b11100 K
b11100 $
b11100 >
b11100 P
1Z
1-
#132000
0Z
0-
#132500
b11101 '
b11101 <
b11101 K
b11101 $
b11101 >
b11101 P
1Z
1-
#133000
0Z
0-
#133500
b11110 '
b11110 <
b11110 K
b11110 $
b11110 >
b11110 P
1Z
1-
#134000
0Z
0-
#134500
b11111 '
b11111 <
b11111 K
b11111 $
b11111 >
b11111 P
1Z
1-
#135000
0Z
0-
1"
#135500
b100000 '
b100000 <
b100000 K
b100000 $
b100000 >
b100000 P
1Z
1-
#136000
0Z
0-
#136500
b100001 '
b100001 <
b100001 K
b100001 $
b100001 >
b100001 P
1Z
1-
#137000
0Z
0-
#137500
b100010 '
b100010 <
b100010 K
b100010 $
b100010 >
b100010 P
1Z
1-
#138000
0Z
0-
#138500
b100011 '
b100011 <
b100011 K
b100011 $
b100011 >
b100011 P
1Z
1-
#139000
0Z
0-
#139500
b100100 '
b100100 <
b100100 K
b100100 $
b100100 >
b100100 P
1Z
1-
#140000
0Z
0-
0"
#140500
b100101 '
b100101 <
b100101 K
b100101 $
b100101 >
b100101 P
1Z
1-
#141000
0Z
0-
#141500
b100110 '
b100110 <
b100110 K
b100110 $
b100110 >
b100110 P
1Z
1-
#142000
0Z
0-
#142500
b100111 '
b100111 <
b100111 K
b100111 $
b100111 >
b100111 P
1Z
1-
#143000
0Z
0-
#143500
b101000 '
b101000 <
b101000 K
b101000 $
b101000 >
b101000 P
1Z
1-
#144000
0Z
0-
#144500
b101001 '
b101001 <
b101001 K
b101001 $
b101001 >
b101001 P
1Z
1-
#145000
0Z
0-
1"
#145500
b101010 '
b101010 <
b101010 K
b101010 $
b101010 >
b101010 P
1Z
1-
#146000
0Z
0-
#146500
b101011 '
b101011 <
b101011 K
b101011 $
b101011 >
b101011 P
1Z
1-
#147000
0Z
0-
#147500
b101100 '
b101100 <
b101100 K
b101100 $
b101100 >
b101100 P
1Z
1-
#148000
0Z
0-
#148500
b101101 '
b101101 <
b101101 K
b101101 $
b101101 >
b101101 P
1Z
1-
#149000
0Z
0-
#149500
b101110 '
b101110 <
b101110 K
b101110 $
b101110 >
b101110 P
1Z
1-
#150000
0Z
0-
0"
#150500
b101111 '
b101111 <
b101111 K
b101111 $
b101111 >
b101111 P
1Z
1-
#151000
0Z
0-
#151500
b110000 '
b110000 <
b110000 K
b110000 $
b110000 >
b110000 P
1Z
1-
#152000
0Z
0-
#152500
b110001 '
b110001 <
b110001 K
b110001 $
b110001 >
b110001 P
1Z
1-
#153000
0Z
0-
#153500
b110010 '
b110010 <
b110010 K
b110010 $
b110010 >
b110010 P
1Z
1-
#154000
0Z
0-
#154500
b110011 '
b110011 <
b110011 K
b110011 $
b110011 >
b110011 P
1Z
1-
#155000
0Z
0-
1"
#155500
b110100 '
b110100 <
b110100 K
b110100 $
b110100 >
b110100 P
1Z
1-
#156000
0Z
0-
#156500
b110101 '
b110101 <
b110101 K
b110101 $
b110101 >
b110101 P
1Z
1-
#157000
0Z
0-
#157500
b110110 '
b110110 <
b110110 K
b110110 $
b110110 >
b110110 P
1Z
1-
#158000
0Z
0-
#158500
b110111 '
b110111 <
b110111 K
b110111 $
b110111 >
b110111 P
1Z
1-
#159000
0Z
0-
#159500
b111000 '
b111000 <
b111000 K
b111000 $
b111000 >
b111000 P
1Z
1-
#160000
0Z
0-
0"
#160500
b111001 '
b111001 <
b111001 K
b111001 $
b111001 >
b111001 P
1Z
1-
#161000
0Z
0-
#161500
b111010 '
b111010 <
b111010 K
b111010 $
b111010 >
b111010 P
1Z
1-
#162000
0Z
0-
#162500
b111011 '
b111011 <
b111011 K
b111011 $
b111011 >
b111011 P
1Z
1-
#163000
0Z
0-
#163500
b111100 '
b111100 <
b111100 K
b111100 $
b111100 >
b111100 P
1Z
1-
#164000
0Z
0-
#164500
b111101 '
b111101 <
b111101 K
b111101 $
b111101 >
b111101 P
1Z
1-
#165000
0Z
0-
1"
#165500
b111110 '
b111110 <
b111110 K
b111110 $
b111110 >
b111110 P
1Z
1-
#166000
0Z
0-
#166500
b111111 '
b111111 <
b111111 K
b111111 $
b111111 >
b111111 P
1Z
1-
#167000
0Z
0-
#167500
b1000000 '
b1000000 <
b1000000 K
b1000000 $
b1000000 >
b1000000 P
1Z
1-
#168000
0Z
0-
#168500
b1000001 '
b1000001 <
b1000001 K
b1000001 $
b1000001 >
b1000001 P
1Z
1-
#169000
0Z
0-
#169500
b1000010 '
b1000010 <
b1000010 K
b1000010 $
b1000010 >
b1000010 P
1Z
1-
#170000
0Z
0-
0"
#170500
b1000011 '
b1000011 <
b1000011 K
b1000011 $
b1000011 >
b1000011 P
1Z
1-
#171000
0Z
0-
#171500
b1000100 '
b1000100 <
b1000100 K
b1000100 $
b1000100 >
b1000100 P
1Z
1-
#172000
0Z
0-
#172500
b1000101 '
b1000101 <
b1000101 K
b1000101 $
b1000101 >
b1000101 P
1Z
1-
#173000
0Z
0-
#173500
b1000110 '
b1000110 <
b1000110 K
b1000110 $
b1000110 >
b1000110 P
1Z
1-
#174000
0Z
0-
#174500
b1000111 '
b1000111 <
b1000111 K
b1000111 $
b1000111 >
b1000111 P
1Z
1-
#175000
0Z
0-
1"
#175500
b1001000 '
b1001000 <
b1001000 K
b1001000 $
b1001000 >
b1001000 P
1Z
1-
#176000
0Z
0-
#176500
b1001001 '
b1001001 <
b1001001 K
b1001001 $
b1001001 >
b1001001 P
1Z
1-
#177000
0Z
0-
#177500
b1001010 '
b1001010 <
b1001010 K
b1001010 $
b1001010 >
b1001010 P
1Z
1-
#178000
0Z
0-
#178500
b1001011 '
b1001011 <
b1001011 K
b1001011 $
b1001011 >
b1001011 P
1Z
1-
#179000
0Z
0-
#179500
b1001100 '
b1001100 <
b1001100 K
b1001100 $
b1001100 >
b1001100 P
1Z
1-
#180000
0Z
0-
0"
#180500
b1001101 '
b1001101 <
b1001101 K
b1001101 $
b1001101 >
b1001101 P
1Z
1-
#181000
0Z
0-
#181500
b1001110 '
b1001110 <
b1001110 K
b1001110 $
b1001110 >
b1001110 P
1Z
1-
#182000
0Z
0-
#182500
b1001111 '
b1001111 <
b1001111 K
b1001111 $
b1001111 >
b1001111 P
1Z
1-
#183000
0Z
0-
#183500
b1010000 '
b1010000 <
b1010000 K
b1010000 $
b1010000 >
b1010000 P
1Z
1-
#184000
0Z
0-
#184500
b1010001 '
b1010001 <
b1010001 K
b1010001 $
b1010001 >
b1010001 P
1Z
1-
#185000
0Z
0-
1"
#185500
b1010010 '
b1010010 <
b1010010 K
b1010010 $
b1010010 >
b1010010 P
1Z
1-
#186000
0Z
0-
#186500
b1010011 '
b1010011 <
b1010011 K
b1010011 $
b1010011 >
b1010011 P
1Z
1-
#187000
0Z
0-
#187500
b1010100 '
b1010100 <
b1010100 K
b1010100 $
b1010100 >
b1010100 P
1Z
1-
#188000
0Z
0-
#188500
b1010101 '
b1010101 <
b1010101 K
b1010101 $
b1010101 >
b1010101 P
1Z
1-
#189000
0Z
0-
#189500
b1010110 '
b1010110 <
b1010110 K
b1010110 $
b1010110 >
b1010110 P
1Z
1-
#190000
0Z
0-
0"
#190500
b1010111 '
b1010111 <
b1010111 K
b1010111 $
b1010111 >
b1010111 P
1Z
1-
#191000
0Z
0-
#191500
b1011000 '
b1011000 <
b1011000 K
b1011000 $
b1011000 >
b1011000 P
1Z
1-
#192000
0Z
0-
#192500
b1011001 '
b1011001 <
b1011001 K
b1011001 $
b1011001 >
b1011001 P
1Z
1-
#193000
0Z
0-
#193500
b1011010 '
b1011010 <
b1011010 K
b1011010 $
b1011010 >
b1011010 P
1Z
1-
#194000
0Z
0-
#194500
b1011011 '
b1011011 <
b1011011 K
b1011011 $
b1011011 >
b1011011 P
1Z
1-
#195000
0Z
0-
1"
#195500
b1011100 '
b1011100 <
b1011100 K
b1011100 $
b1011100 >
b1011100 P
1Z
1-
#196000
0Z
0-
#196500
b1011101 '
b1011101 <
b1011101 K
b1011101 $
b1011101 >
b1011101 P
1Z
1-
#197000
0Z
0-
#197500
b1011110 '
b1011110 <
b1011110 K
b1011110 $
b1011110 >
b1011110 P
1Z
1-
#198000
0Z
0-
#198500
b1011111 '
b1011111 <
b1011111 K
b1011111 $
b1011111 >
b1011111 P
1Z
1-
#199000
0Z
0-
#199500
b1100000 '
b1100000 <
b1100000 K
b1100000 $
b1100000 >
b1100000 P
1Z
1-
#200000
0Z
0-
0"
#200500
b1100001 '
b1100001 <
b1100001 K
b1100001 $
b1100001 >
b1100001 P
1Z
1-
#201000
0Z
0-
#201500
b1100010 '
b1100010 <
b1100010 K
b1100010 $
b1100010 >
b1100010 P
1Z
1-
#202000
0Z
0-
#202500
b1100011 '
b1100011 <
b1100011 K
b1100011 $
b1100011 >
b1100011 P
1Z
1-
#203000
0Z
0-
#203500
b1100100 '
b1100100 <
b1100100 K
b1100100 $
b1100100 >
b1100100 P
1Z
1-
#204000
0Z
0-
#204500
b1100101 '
b1100101 <
b1100101 K
b1100101 $
b1100101 >
b1100101 P
1Z
1-
#205000
0Z
0-
1"
#205500
b1100110 '
b1100110 <
b1100110 K
b1100110 $
b1100110 >
b1100110 P
1Z
1-
#206000
0Z
0-
#206500
b1100111 '
b1100111 <
b1100111 K
b1100111 $
b1100111 >
b1100111 P
1Z
1-
#207000
0Z
0-
#207500
b1101000 '
b1101000 <
b1101000 K
b1101000 $
b1101000 >
b1101000 P
1Z
1-
#208000
0Z
0-
#208500
b1101001 '
b1101001 <
b1101001 K
b1101001 $
b1101001 >
b1101001 P
1Z
1-
#209000
0Z
0-
#209500
b1101010 '
b1101010 <
b1101010 K
b1101010 $
b1101010 >
b1101010 P
1Z
1-
#210000
0Z
0-
0"
#210500
b1101011 '
b1101011 <
b1101011 K
b1101011 $
b1101011 >
b1101011 P
1Z
1-
#211000
0Z
0-
#211500
b1101100 '
b1101100 <
b1101100 K
b1101100 $
b1101100 >
b1101100 P
1Z
1-
#212000
0Z
0-
#212500
b1101101 '
b1101101 <
b1101101 K
b1101101 $
b1101101 >
b1101101 P
1Z
1-
#213000
0Z
0-
#213500
b1101110 '
b1101110 <
b1101110 K
b1101110 $
b1101110 >
b1101110 P
1Z
1-
#214000
0Z
0-
#214500
b1101111 '
b1101111 <
b1101111 K
b1101111 $
b1101111 >
b1101111 P
1Z
1-
#215000
0Z
0-
1"
#215500
b1110000 '
b1110000 <
b1110000 K
b1110000 $
b1110000 >
b1110000 P
1Z
1-
#216000
0Z
0-
#216500
b1110001 '
b1110001 <
b1110001 K
b1110001 $
b1110001 >
b1110001 P
1Z
1-
#217000
0Z
0-
#217500
b1110010 '
b1110010 <
b1110010 K
b1110010 $
b1110010 >
b1110010 P
1Z
1-
#218000
0Z
0-
#218500
b1110011 '
b1110011 <
b1110011 K
b1110011 $
b1110011 >
b1110011 P
1Z
1-
#219000
0Z
0-
#219500
b1110100 '
b1110100 <
b1110100 K
b1110100 $
b1110100 >
b1110100 P
1Z
1-
